,baseMean,log2FoldChange,lfcSE,stat,pvalue,padj
ENSG00000210196.2,395.108204514507,-0.00524599035298806,0.0413410787242645,-0.126895342716565,0.899023232817324,0.999641830485905
ENSG00000198727.2,101089.462890739,-0.00708954317197248,0.0411630000949262,-0.172230963623236,0.863255956139626,0.999641830485905
ENSG00000210194.1,543.36366938786,-0.0370484410974003,0.0413112267739136,-0.896812900283923,0.369818763102143,0.979052367006867
ENSG00000198695.2,26773.2794762567,0.0106701072629252,0.0406780875662108,0.262306020300431,0.793085520957509,0.996568580540688
